<?xml version="1.0" encoding="UTF-8" standalone="no"?>
<svg
   xmlns:dc="http://purl.org/dc/elements/1.1/"
   xmlns:cc="http://creativecommons.org/ns#"
   xmlns:rdf="http://www.w3.org/1999/02/22-rdf-syntax-ns#"
   xmlns:svg="http://www.w3.org/2000/svg"
   xmlns="http://www.w3.org/2000/svg"
   xmlns:sodipodi="http://sodipodi.sourceforge.net/DTD/sodipodi-0.dtd"
   xmlns:inkscape="http://www.inkscape.org/namespaces/inkscape"
   version="1.1"
   x="0px"
   y="0px"
   viewBox="0 0 25 31.25"
   enable-background="new 0 0 25 25"
   xml:space="preserve"
   id="svg10"
   sodipodi:docname="billing.svg"
   inkscape:version="0.92.3 (2405546, 2018-03-11)"><metadata
     id="metadata16"><rdf:RDF><cc:Work
         rdf:about=""><dc:format>image/svg+xml</dc:format><dc:type
           rdf:resource="http://purl.org/dc/dcmitype/StillImage" /></cc:Work></rdf:RDF></metadata><defs
     id="defs14" /><sodipodi:namedview
     pagecolor="#ffffff"
     bordercolor="#666666"
     borderopacity="1"
     objecttolerance="10"
     gridtolerance="10"
     guidetolerance="10"
     inkscape:pageopacity="0"
     inkscape:pageshadow="2"
     inkscape:window-width="1343"
     inkscape:window-height="989"
     id="namedview12"
     showgrid="false"
     inkscape:zoom="7.552"
     inkscape:cx="12.5"
     inkscape:cy="15.625"
     inkscape:window-x="0"
     inkscape:window-y="0"
     inkscape:window-maximized="0"
     inkscape:current-layer="svg10" /><g
     id="g4"><path
       d="M16.354,2.646C16.26,2.553,16.133,2.5,16,2.5H8C6.07,2.5,4.5,4.07,4.5,6v13c0,1.93,1.57,3.5,3.5,3.5h9   c1.93,0,3.5-1.57,3.5-3.5V7c0-0.133-0.053-0.26-0.146-0.354L16.354,2.646z M9,9.5h1.051c0.245-1.691,1.691-3,3.449-3H14   c0.276,0,0.5,0.224,0.5,0.5S14.276,7.5,14,7.5h-0.5c-1.207,0-2.217,0.86-2.449,2H14c0.276,0,0.5,0.224,0.5,0.5s-0.224,0.5-0.5,0.5   h-2.949c0.232,1.14,1.242,2,2.449,2H14c0.276,0,0.5,0.224,0.5,0.5s-0.224,0.5-0.5,0.5h-0.5c-1.758,0-3.204-1.309-3.449-3H9   c-0.276,0-0.5-0.224-0.5-0.5S8.724,9.5,9,9.5z M17,18.5H8c-0.276,0-0.5-0.224-0.5-0.5s0.224-0.5,0.5-0.5h9   c0.276,0,0.5,0.224,0.5,0.5S17.276,18.5,17,18.5z"
       id="path2" /></g></svg>