<?xml version="1.0" encoding="UTF-8" standalone="no"?>
<svg
   xmlns:dc="http://purl.org/dc/elements/1.1/"
   xmlns:cc="http://creativecommons.org/ns#"
   xmlns:rdf="http://www.w3.org/1999/02/22-rdf-syntax-ns#"
   xmlns:svg="http://www.w3.org/2000/svg"
   xmlns="http://www.w3.org/2000/svg"
   xmlns:sodipodi="http://sodipodi.sourceforge.net/DTD/sodipodi-0.dtd"
   xmlns:inkscape="http://www.inkscape.org/namespaces/inkscape"
   version="1.1"
   x="0px"
   y="0px"
   viewBox="0 0 100 125"
   style="enable-background:new 0 0 100 100;"
   xml:space="preserve"
   id="svg8"
   sodipodi:docname="videogames.svg"
   inkscape:version="0.92.3 (2405546, 2018-03-11)"><metadata
     id="metadata14"><rdf:RDF><cc:Work
         rdf:about=""><dc:format>image/svg+xml</dc:format><dc:type
           rdf:resource="http://purl.org/dc/dcmitype/StillImage" /><dc:title></dc:title></cc:Work></rdf:RDF></metadata><defs
     id="defs12" /><sodipodi:namedview
     pagecolor="#ffffff"
     bordercolor="#666666"
     borderopacity="1"
     objecttolerance="10"
     gridtolerance="10"
     guidetolerance="10"
     inkscape:pageopacity="0"
     inkscape:pageshadow="2"
     inkscape:window-width="1920"
     inkscape:window-height="843"
     id="namedview10"
     showgrid="false"
     inkscape:zoom="1.888"
     inkscape:cx="50"
     inkscape:cy="62.5"
     inkscape:window-x="0"
     inkscape:window-y="0"
     inkscape:window-maximized="0"
     inkscape:current-layer="svg8" /><path
     d="M98.3,64.3L87.5,29c-3.6-8.8-15.5-12-24.1-7.4c-2.7,1.4-4.9,3.6-6.7,6.3H43.2c-1.6-2.6-4-4.8-6.7-6.3  C27.8,17,16,20.2,12.4,29L1.7,64.3c-1.8,6.6,0,12.5,5.8,15.1c5.8,2.6,10.8-0.1,15.1-5.8l13.1-17.1h28.5l13.1,17.1  c4.4,5.7,9.3,8.3,15.1,5.8C98.3,76.8,100.1,70.9,98.3,64.3z M35.5,40.7h-5.3V46h-5.3v-5.3h-5.3v-5.3h5.3v-5.3h5.3v5.3h5.3V40.7z   M67.3,41.2c-1.5,0-2.8-1.3-2.8-2.8c0-1.5,1.3-2.8,2.8-2.8c1.5,0,2.8,1.3,2.8,2.8C70.1,40,68.9,41.2,67.3,41.2z M69.7,32.4  c0-1.5,1.3-2.8,2.8-2.8c1.5,0,2.8,1.3,2.8,2.8s-1.3,2.8-2.8,2.8C71,35.2,69.7,33.9,69.7,32.4z M73.4,46.4c-1.5,0-2.8-1.3-2.8-2.8  c0-1.5,1.3-2.8,2.8-2.8s2.8,1.3,2.8,2.8C76.2,45.2,74.9,46.4,73.4,46.4z M78.6,40.4c-1.5,0-2.8-1.3-2.8-2.8c0-1.5,1.3-2.8,2.8-2.8  c1.5,0,2.8,1.3,2.8,2.8C81.4,39.1,80.1,40.4,78.6,40.4z"
     id="path2" /></svg>